{
    "44923917": {
        "nombre": "Ariela Vergara",
        "alias": "Profe Ariela",
        "correo": "Arvergara@utalca.cl",
        "work": "Directora ICB"
    },
    "50100437": {
        "nombre": "Fabio Duran",
        "alias": "F",
        "correo": "Fduran@utalca.cl",
        "work": "Desarrollador GNOME"
    },
    "91551331": {
        "nombre": "Gonzalo Riadi",
        "alias": "Profe riadi",
        "correo": "Griadi@utalca.cl",
        "work": "Profe Genomica"
    },
    "88986022": {
        "nombre": "Wendy Gonzales",
        "alias": "Profe Wendy",
        "correo": "Wgonzales@utalca.cl",
        "work": "Profe Biofisica"
    }
}